<?xml version="1.0" encoding="utf-8"?>
<!-- Generator: Adobe Illustrator 25.2.1, SVG Export Plug-In . SVG Version: 6.00 Build 0)  -->
<svg version="1.1" id="Lager_1" xmlns="http://www.w3.org/2000/svg" xmlns:xlink="http://www.w3.org/1999/xlink" x="0px" y="0px"
	 viewBox="0 0 407.14 334.52" style="enable-background:new 0 0 407.14 334.52;" xml:space="preserve">
<style type="text/css">
	.st0{fill:none;stroke:#000000;stroke-width:3;stroke-linecap:round;stroke-miterlimit:10;}
	.st1{fill:none;stroke:#000000;stroke-width:6;stroke-linecap:round;stroke-miterlimit:10;}
	.st2{fill:none;stroke:#000000;stroke-width:7;stroke-linecap:round;stroke-linejoin:round;stroke-miterlimit:10;}
</style>
<g>
	<g>
		<g>
			<path d="M16.72,302.75l-0.05-8.43c0-1.23-0.25-2.17-0.75-2.82c-0.5-0.65-1.06-1.01-1.67-1.1c-0.62-0.08-1.17-0.19-1.67-0.32
				c-0.5-0.13-0.75-0.37-0.75-0.7c0-0.53,0.48-0.8,1.45-0.8h8.28l4.99-0.15c2.99,0,5.55,0.76,7.68,2.27
				c2.13,1.51,3.19,3.55,3.19,6.11c0,1.7-0.32,3.18-0.97,4.46c-0.65,1.28-1.36,2.2-2.14,2.77c-0.78,0.57-1.5,1.06-2.14,1.47
				c-0.65,0.42-0.97,0.69-0.97,0.82c0,0.4,1.4,2.55,4.19,6.46c2.79,3.91,4.7,6.41,5.73,7.51c1.26,1.56,2.79,2.34,4.59,2.34
				c0.47,0,0.7,0.2,0.7,0.6c0,0.5-0.2,0.83-0.6,1s-1.4,0.25-3.02,0.25c-1.61,0-3.07-0.38-4.36-1.15c-1.79-1.03-4.77-5.02-8.93-11.97
				c-1.6-2.59-2.83-3.89-3.69-3.89h-4.09c-0.4,0-0.64,0.17-0.72,0.5c-0.08,0.33-0.12,1.31-0.12,2.94v4.04l0.05,2.64v0.45
				c0,1.36,0.32,2.42,0.95,3.17c0.63,0.75,1.34,1.18,2.12,1.3c0.78,0.12,1.49,0.25,2.12,0.4c0.63,0.15,0.95,0.39,0.95,0.72
				c0,0.53-0.3,0.8-0.9,0.8l-7.13-0.35l-5.49,0.2c-0.7,0-1.05-0.27-1.05-0.8c0-0.57,0.7-0.93,2.09-1.1c0.53-0.07,1.01-0.43,1.45-1.1
				c0.43-0.67,0.65-1.61,0.65-2.84L16.72,302.75z M20.86,297.36c0,3.43,0.02,5.54,0.05,6.36c0.03,0.82,0.15,1.29,0.35,1.42
				c0.5,0.3,1.21,0.45,2.14,0.45h1.94c2.83,0,4.84-0.65,6.06-1.95c1.21-1.3,1.82-2.97,1.82-5.01c0-2.05-0.81-3.91-2.42-5.61
				c-1.61-1.7-4.05-2.54-7.31-2.54c-1.23,0-1.98,0.32-2.24,0.97c-0.27,0.65-0.4,2.15-0.4,4.51V297.36z"/>
			<path d="M42.78,324.86c-1.67,0-3.21-0.4-4.55-1.2c-1.87-1.07-4.83-5.03-9.06-12.1c-1.99-3.22-2.96-3.71-3.37-3.71h-4.09
				c-0.31,0-0.34,0.12-0.36,0.21c-0.05,0.21-0.11,0.87-0.11,2.85v4.04l0.05,3.09c0,1.27,0.29,2.25,0.86,2.92
				c0.57,0.67,1.2,1.07,1.89,1.17c0.82,0.12,1.52,0.26,2.15,0.41c0.82,0.19,1.24,0.56,1.24,1.09c0,0.75-0.46,1.17-1.27,1.17
				l-7.15-0.35l-5.45,0.2h0c-1.3,0-1.44-0.82-1.44-1.17c0-1.18,1.83-1.4,2.42-1.47c0.41-0.05,0.81-0.36,1.18-0.93
				c0.39-0.6,0.59-1.49,0.59-2.64l0.05-15.71l-0.05-8.43c0-1.14-0.23-2.01-0.67-2.59c-0.43-0.56-0.91-0.88-1.42-0.95
				c-0.62-0.08-1.2-0.2-1.72-0.33c-0.89-0.24-1.03-0.77-1.03-1.06c0-0.54,0.32-1.17,1.82-1.17h8.28l4.98-0.15
				c3.07,0,5.72,0.79,7.91,2.34c2.22,1.58,3.35,3.74,3.35,6.42c0,1.75-0.34,3.31-1.01,4.63c-0.67,1.33-1.43,2.3-2.26,2.9
				c-0.77,0.56-1.5,1.06-2.16,1.48c-0.5,0.32-0.7,0.49-0.78,0.57c0.11,0.31,0.79,1.54,4.1,6.18c2.77,3.87,4.69,6.38,5.7,7.47
				c1.22,1.5,2.62,2.23,4.31,2.23c0.67,0,1.07,0.36,1.07,0.97c0,0.83-0.45,1.19-0.83,1.34C45.65,324.7,45.01,324.86,42.78,324.86z
				 M21.71,307.11h4.09c1.03,0,2.3,1.29,4.01,4.07c4.1,6.86,7.06,10.85,8.79,11.84c1.24,0.73,2.64,1.1,4.18,1.1
				c2.04,0,2.68-0.14,2.87-0.22c0.18-0.08,0.37-0.21,0.37-0.65c0-0.13,0-0.22-0.32-0.22c-1.91,0-3.55-0.83-4.88-2.48
				c-1.02-1.08-2.96-3.62-5.75-7.52c-4.26-5.96-4.26-6.42-4.26-6.67c0-0.27,0.18-0.52,1.15-1.14c0.65-0.42,1.37-0.91,2.13-1.46
				c0.73-0.53,1.41-1.41,2.03-2.63c0.62-1.22,0.93-2.67,0.93-4.29c0-2.45-0.99-4.35-3.03-5.8c-2.05-1.46-4.56-2.2-7.46-2.2
				l-4.98,0.15h-8.29c-0.71,0-1.07,0.14-1.07,0.42c0,0.14,0.16,0.25,0.47,0.33c0.48,0.13,1.03,0.23,1.62,0.31
				c0.71,0.1,1.36,0.51,1.92,1.24c0.55,0.71,0.83,1.74,0.83,3.05l0.05,8.43l-0.05,15.71c0,1.3-0.24,2.32-0.71,3.05
				c-0.49,0.76-1.07,1.18-1.71,1.26c-1.11,0.13-1.77,0.4-1.77,0.72c0,0.17,0,0.42,0.67,0.42l5.47-0.2l7.16,0.35
				c0.46,0,0.5-0.19,0.5-0.42c0-0.12-0.26-0.26-0.66-0.36c-0.61-0.15-1.29-0.27-2.09-0.39c-0.87-0.13-1.66-0.61-2.35-1.42
				c-0.69-0.81-1.04-1.96-1.04-3.41v-0.45l-0.05-2.63v-4.05c0-2.24,0.08-2.8,0.14-3.03C20.74,307.39,21.14,307.11,21.71,307.11z
				 M31.53,306.45L31.53,306.45L31.53,306.45z M25.35,305.96H23.4c-1.01,0-1.77-0.16-2.34-0.5c-0.34-0.22-0.49-0.74-0.53-1.73
				c-0.03-0.82-0.05-2.9-0.05-6.37v-1.4c0-2.43,0.14-3.96,0.43-4.66c0.33-0.8,1.2-1.21,2.59-1.21c3.35,0,5.9,0.9,7.58,2.66
				c1.67,1.76,2.52,3.73,2.52,5.87c0,2.13-0.65,3.91-1.92,5.27C30.4,305.27,28.27,305.96,25.35,305.96z M23.5,290.85
				c-1.06,0-1.7,0.25-1.9,0.74c-0.17,0.41-0.37,1.5-0.37,4.37v1.4c0,3.46,0.02,5.54,0.05,6.34c0.04,0.96,0.19,1.13,0.19,1.13
				c0.41,0.24,1.07,0.38,1.92,0.38h1.94c2.71,0,4.65-0.61,5.78-1.83c1.14-1.22,1.72-2.82,1.72-4.75c0-1.94-0.78-3.74-2.32-5.35
				C29,291.67,26.64,290.85,23.5,290.85z"/>
		</g>
		<g>
			<path d="M55.37,324.09l-4.29,0.2c-0.96,0-1.45-0.2-1.45-0.6c0-0.47,0.25-0.78,0.75-0.95c1.06-0.4,1.99-1.29,2.79-2.67
				c0.8-1.38,2.8-5.55,6.01-12.52c3.21-6.96,6.06-13.11,8.55-18.43c0.23-0.5,0.44-0.81,0.62-0.95c0.18-0.13,0.45-0.2,0.8-0.2
				c0.35,0,0.57,0.07,0.67,0.2c0.1,0.13,0.28,0.58,0.55,1.35c0.27,0.77,0.47,1.35,0.62,1.75c0.15,0.4,0.39,1.05,0.72,1.95
				c0.33,0.9,0.86,2.24,1.6,4.04c0.73,1.8,2.4,5.73,5.01,11.79c2.61,6.07,4.11,9.51,4.51,10.32c0.4,0.82,0.95,1.51,1.65,2.09
				c0.7,0.58,1.3,0.9,1.82,0.95c0.52,0.05,0.95,0.13,1.3,0.25c0.35,0.12,0.52,0.37,0.52,0.77c0,0.5-0.45,0.75-1.35,0.75l-4.49-0.3
				l-4.64,0.2c-1.03,0-1.69-0.04-1.97-0.12c-0.28-0.08-0.42-0.26-0.42-0.52c0-0.27,0.13-0.47,0.4-0.62c0.27-0.15,0.55-0.25,0.85-0.3
				c0.3-0.05,0.58-0.2,0.85-0.45c0.27-0.25,0.4-0.67,0.4-1.25c0-0.58-0.42-2-1.25-4.26c-0.83-2.26-1.53-3.92-2.09-4.99
				c-0.3-0.56-0.98-0.85-2.04-0.85l-6.03,0.1h-2.64c-1.5,0-2.44,0.08-2.82,0.25c-0.38,0.17-0.7,0.52-0.95,1.05
				c-0.25,0.53-0.61,1.27-1.07,2.22c-0.47,0.95-0.78,1.6-0.95,1.97c-0.17,0.37-0.37,0.83-0.6,1.4c-0.43,1-0.65,1.83-0.65,2.49
				c0,0.67,0.19,1.2,0.57,1.6c0.38,0.4,0.81,0.63,1.27,0.7c1.23,0.1,1.84,0.42,1.84,0.95c0,0.23-0.05,0.41-0.15,0.52
				c-0.1,0.12-0.33,0.17-0.7,0.17L55.37,324.09z M64.54,301.17c-1.6,3.67-2.39,5.71-2.39,6.11c0,0.4,0.15,0.65,0.45,0.75
				c0.3,0.1,1,0.15,2.09,0.15h1.55l4.74-0.05c1.3,0,1.94-0.24,1.94-0.72c0-0.48-0.82-2.56-2.44-6.23c-1.63-3.67-2.66-5.51-3.09-5.51
				C67.09,295.66,66.14,297.5,64.54,301.17z"/>
			<path d="M51.09,324.66c-1.23,0-1.84-0.33-1.84-0.97c0-0.62,0.36-1.09,1-1.3c0.96-0.36,1.84-1.21,2.59-2.5
				c0.79-1.36,2.8-5.56,5.99-12.49c3.2-6.95,6.08-13.15,8.55-18.43c0.26-0.57,0.5-0.92,0.74-1.09c0.25-0.18,0.59-0.27,1.02-0.27
				c0.48,0,0.8,0.11,0.97,0.35c0.09,0.12,0.23,0.39,0.6,1.45c0.27,0.76,0.47,1.34,0.62,1.74l0.72,1.95c0.33,0.88,0.85,2.2,1.59,4.03
				c0.73,1.79,2.42,5.76,5.01,11.79c2.6,6.04,4.11,9.5,4.51,10.31c0.37,0.76,0.89,1.43,1.55,1.97c0.64,0.53,1.18,0.82,1.62,0.86
				c0.54,0.05,1,0.14,1.38,0.27c0.5,0.17,0.78,0.57,0.78,1.13c0,0.51-0.3,1.12-1.72,1.12l-4.51-0.3l-4.6,0.2c0,0-0.01,0-0.01,0
				c-1.45,0-1.88-0.08-2.08-0.14c-0.44-0.13-0.69-0.45-0.69-0.88c0-0.28,0.1-0.68,0.59-0.95c0.3-0.17,0.62-0.28,0.97-0.34
				c0.23-0.04,0.44-0.15,0.65-0.35c0.19-0.17,0.28-0.5,0.28-0.97c0-0.37-0.21-1.38-1.22-4.13c-0.82-2.23-1.52-3.9-2.07-4.94
				c-0.23-0.43-0.8-0.65-1.71-0.65l-8.68,0.1c-1.89,0-2.48,0.14-2.67,0.22c-0.29,0.13-0.55,0.42-0.76,0.86
				c-0.25,0.53-0.61,1.28-1.07,2.23c-0.46,0.94-0.78,1.6-0.94,1.96c-0.17,0.36-0.36,0.82-0.59,1.38c-0.41,0.95-0.62,1.74-0.62,2.35
				c0,0.57,0.15,1.01,0.47,1.34c0.33,0.34,0.67,0.53,1.05,0.59c1.43,0.12,2.17,0.56,2.17,1.32c0,0.32-0.08,0.58-0.24,0.77
				c-0.18,0.21-0.49,0.31-0.98,0.31l-4.13-0.05L51.09,324.66C51.09,324.66,51.09,324.66,51.09,324.66z M69.15,288.36
				c-0.33,0-0.5,0.07-0.58,0.13c-0.06,0.04-0.23,0.21-0.5,0.8c-2.47,5.28-5.35,11.48-8.55,18.42c-3.25,7.04-5.22,11.15-6.03,12.55
				c-0.84,1.45-1.84,2.4-2.98,2.83c-0.45,0.15-0.51,0.38-0.51,0.6c0,0.04,0.19,0.22,1.07,0.22l4.29-0.2l4.14,0.05
				c0.33,0,0.42-0.05,0.42-0.06c0,0,0.05-0.07,0.05-0.27c0-0.28-0.56-0.5-1.5-0.57c-0.57-0.08-1.07-0.35-1.51-0.81
				c-0.45-0.47-0.68-1.09-0.68-1.86c0-0.71,0.23-1.6,0.68-2.64c0.23-0.56,0.43-1.03,0.6-1.4c0.17-0.37,0.48-1.03,0.95-1.98
				c0.46-0.94,0.82-1.68,1.07-2.21c0.29-0.61,0.67-1.03,1.14-1.23c0.28-0.12,0.89-0.28,2.97-0.28h2.64l6.03-0.1
				c1.21,0,2.01,0.35,2.38,1.05c0.57,1.08,1.28,2.77,2.11,5.03c0.85,2.32,1.27,3.76,1.27,4.39c0,0.69-0.17,1.2-0.52,1.52
				c-0.32,0.3-0.67,0.48-1.04,0.54c-0.26,0.04-0.5,0.13-0.72,0.26c-0.18,0.1-0.21,0.2-0.21,0.3c0,0.07,0,0.12,0.15,0.16
				c0.14,0.04,0.56,0.11,1.87,0.11l4.62-0.2l4.53,0.3c0.62,0,0.95-0.13,0.95-0.37c0-0.27-0.1-0.36-0.27-0.42
				c-0.32-0.11-0.73-0.19-1.21-0.23c-0.6-0.06-1.26-0.4-2.02-1.03c-0.74-0.61-1.32-1.36-1.74-2.22c-0.4-0.82-1.88-4.21-4.52-10.34
				c-2.6-6.03-4.28-10-5.01-11.8c-0.75-1.83-1.27-3.16-1.6-4.05l-0.72-1.94c-0.15-0.4-0.36-0.98-0.63-1.75
				c-0.35-1-0.47-1.21-0.49-1.25l0,0C69.52,288.41,69.43,288.36,69.15,288.36z M64.69,308.56c-1.53,0-1.99-0.1-2.21-0.17
				c-0.27-0.09-0.71-0.35-0.71-1.1c0-0.33,0.29-1.34,2.42-6.26l0,0c2.49-5.74,2.85-5.74,3.19-5.74c0.38,0,0.89,0,3.43,5.73
				c2.19,4.95,2.48,6.01,2.48,6.39c0,1.1-1.75,1.1-2.32,1.1L64.69,308.56z M64.89,301.32c-2.11,4.87-2.36,5.79-2.36,5.96
				c0,0.33,0.13,0.37,0.19,0.39c0.14,0.05,0.6,0.13,1.98,0.13h1.55l4.73-0.05c1.29,0,1.57-0.25,1.57-0.35
				c0-0.19-0.23-1.17-2.41-6.08c-1.74-3.91-2.45-4.94-2.71-5.21C67.17,296.43,66.53,297.55,64.89,301.32L64.89,301.32z"/>
		</g>
		<g>
			<path d="M94.26,324.19c-0.7,0-1.05-0.27-1.05-0.8c0-0.43,0.5-0.66,1.5-0.7c0.37-0.03,0.78-0.31,1.25-0.82
				c0.47-0.52,0.8-1.2,1-2.07c0.2-0.87,0.42-3.82,0.65-8.88c0.23-5.05,0.35-9.02,0.35-11.89c0-2.87-0.32-4.94-0.97-6.21
				c-0.65-1.26-2.05-2.14-4.21-2.64c-0.43-0.1-0.65-0.35-0.65-0.75c0-0.5,0.3-0.75,0.9-0.75l2.64,0.2l3.74-0.1
				c0.63,0,1.03,0.23,1.2,0.7c0.4,0.87,1.11,2.42,2.14,4.66c1.03,2.25,1.85,4.03,2.47,5.36c0.61,1.33,1.4,3.03,2.37,5.09
				c0.96,2.06,1.75,3.73,2.34,5.01c0.6,1.28,1.22,2.57,1.87,3.86c0.65,1.3,1.15,2.25,1.5,2.87c0.35,0.62,0.57,0.92,0.67,0.92
				c0.1,0,0.21-0.06,0.32-0.17c0.12-0.12,0.23-0.27,0.35-0.47c0.12-0.2,0.22-0.4,0.3-0.6c0.08-0.2,0.2-0.46,0.35-0.77
				c0.15-0.31,0.26-0.56,0.32-0.72l6.43-13.26c1.76-3.59,2.94-6.1,3.54-7.53l1.15-2.49c0.1-0.27,0.17-0.47,0.22-0.62
				s0.09-0.27,0.12-0.35c0.03-0.08,0.07-0.16,0.1-0.22c0.03-0.07,0.09-0.22,0.17-0.45c0.08-0.23,0.17-0.4,0.27-0.5
				c0.27-0.27,0.75-0.4,1.45-0.4l4.29,0.1c0.56,0,0.85,0.22,0.85,0.65c0,0.33-0.11,0.57-0.32,0.72c-0.22,0.15-0.7,0.27-1.45,0.37
				c-0.75,0.1-1.29,0.52-1.62,1.25c-0.33,0.73-0.5,2.74-0.5,6.01c0,3.27,0.1,6.73,0.3,10.37c0.2,3.64,0.3,5.93,0.3,6.86
				c0,3.32,0.27,5.44,0.8,6.36c0.53,0.92,1.65,1.37,3.34,1.37c0.23,0,0.44,0.08,0.62,0.25c0.18,0.17,0.27,0.32,0.27,0.45
				c0,0.53-0.18,0.8-0.55,0.8h-0.55l-5.09-0.2l-5.19,0.25c-0.6,0-0.9-0.23-0.9-0.7c0-0.5,0.45-0.8,1.35-0.9
				c0.33-0.03,0.69-0.24,1.07-0.62c0.38-0.38,0.65-0.93,0.8-1.65c0.15-0.72,0.22-1.7,0.22-2.97c0-1.26-0.02-2.64-0.07-4.14
				c-0.05-1.5-0.11-2.95-0.17-4.36c-0.07-1.41-0.13-2.74-0.2-3.99c-0.07-1.25-0.12-2.27-0.15-3.07l-0.1-1.2
				c0-1.43-0.15-2.14-0.45-2.14c-0.1,0-0.19,0.05-0.27,0.15c-0.08,0.1-0.16,0.18-0.22,0.25c-0.07,0.07-0.13,0.17-0.2,0.32
				c-0.07,0.15-0.13,0.27-0.2,0.37c-0.07,0.1-0.15,0.24-0.25,0.42c-0.1,0.18-0.18,0.34-0.25,0.47l-0.25,0.55
				c-0.13,0.23-0.23,0.43-0.3,0.6l-6.93,14.01c-0.8,1.63-1.57,3.22-2.32,4.79c-0.75,1.56-1.19,2.45-1.32,2.67
				c-0.13,0.22-0.32,0.32-0.57,0.32s-0.47-0.14-0.67-0.42c-0.2-0.28-0.5-0.91-0.9-1.87s-0.75-1.76-1.05-2.39
				c-6.08-12.37-9.19-18.64-9.33-18.83c-0.13-0.18-0.25-0.27-0.35-0.27c-0.27,0-0.4,0.67-0.4,2l-0.45,13.16v2.24
				c0,2.73,0.55,4.41,1.65,5.04c0.56,0.33,1.11,0.52,1.65,0.55c0.83,0.1,1.25,0.32,1.25,0.67c0,0.35-0.05,0.58-0.15,0.7
				c-0.1,0.12-0.3,0.17-0.6,0.17l-5.19-0.2L94.26,324.19z"/>
			<path d="M124.6,324.66c-1.17,0-1.29-0.75-1.29-1.07c0-0.49,0.29-1.12,1.68-1.27c0.24-0.02,0.53-0.2,0.85-0.51
				c0.33-0.33,0.56-0.82,0.7-1.46c0.14-0.69,0.22-1.66,0.22-2.89c0-1.26-0.03-2.65-0.08-4.13c-0.05-1.49-0.11-2.95-0.17-4.36
				c-0.07-1.41-0.13-2.74-0.2-3.99c-0.07-1.25-0.12-2.27-0.15-3.07l-0.1-1.18c0-1.04-0.08-1.5-0.14-1.71
				c-0.06,0.08-0.12,0.14-0.17,0.19c-0.01,0.01-0.06,0.06-0.12,0.21c-0.08,0.17-0.15,0.32-0.23,0.43c-0.06,0.09-0.14,0.23-0.23,0.4
				c-0.1,0.18-0.18,0.33-0.24,0.46l-0.24,0.54c-0.14,0.25-0.23,0.43-0.29,0.58l-6.94,14.04c-0.8,1.63-1.57,3.22-2.32,4.78
				c-0.76,1.59-1.2,2.47-1.34,2.7c-0.2,0.33-0.51,0.5-0.89,0.5c-0.26,0-0.64-0.1-0.98-0.58c-0.22-0.31-0.52-0.94-0.94-1.94
				c-0.39-0.95-0.74-1.75-1.04-2.38c-7.03-14.3-8.96-18.15-9.26-18.71c-0.05,0.22-0.1,0.65-0.1,1.45l-0.45,13.18v2.23
				c0,2.57,0.49,4.16,1.46,4.71c0.52,0.3,1.01,0.47,1.48,0.5c0.41,0.05,1.6,0.19,1.6,1.05c0,0.45-0.08,0.75-0.24,0.94
				c-0.18,0.21-0.47,0.31-0.88,0.31l-5.2-0.2l-4.07,0.15c-1.28,0-1.42-0.82-1.42-1.17c0-0.67,0.62-1.03,1.86-1.07
				c0.16-0.01,0.48-0.15,0.98-0.7c0.42-0.46,0.73-1.1,0.91-1.9c0.19-0.84,0.41-3.8,0.64-8.81c0.23-5.03,0.35-9.03,0.35-11.88
				c0-2.8-0.31-4.83-0.93-6.04c-0.59-1.15-1.93-1.98-3.96-2.45c-0.61-0.14-0.94-0.54-0.94-1.12c0-0.34,0.12-1.12,1.27-1.12l2.67,0.2
				l3.7-0.1c1.01,0,1.4,0.51,1.56,0.95l2.13,4.63c1.03,2.24,1.85,4.03,2.47,5.36c0.61,1.33,1.4,3.02,2.37,5.08l2.34,5.01
				c0.6,1.28,1.22,2.56,1.87,3.86c0.64,1.28,1.14,2.24,1.49,2.85c0.2,0.36,0.33,0.56,0.41,0.66c0.09-0.09,0.19-0.22,0.29-0.39
				c0.11-0.18,0.2-0.37,0.28-0.55c0.08-0.2,0.2-0.47,0.36-0.79c0.15-0.31,0.25-0.54,0.31-0.7l6.44-13.29
				c1.75-3.57,2.94-6.1,3.53-7.51l1.15-2.51c0.09-0.24,0.16-0.44,0.21-0.58c0.05-0.16,0.1-0.28,0.13-0.37
				c0.04-0.09,0.07-0.18,0.11-0.25c0.03-0.06,0.08-0.2,0.16-0.41c0.1-0.29,0.22-0.49,0.36-0.64c0.34-0.34,0.9-0.51,1.71-0.51
				l4.3,0.1c1.09,0,1.21,0.71,1.21,1.02c0,0.58-0.26,0.88-0.49,1.03c-0.17,0.12-0.53,0.29-1.61,0.44c-0.62,0.08-1.05,0.42-1.33,1.03
				c-0.21,0.47-0.47,1.86-0.47,5.85c0,3.25,0.1,6.73,0.3,10.35c0.2,3.63,0.3,5.95,0.3,6.88c0,4.04,0.41,5.58,0.75,6.17
				c0.46,0.79,1.47,1.19,3.02,1.19c0.33,0,0.62,0.12,0.88,0.34c0.27,0.25,0.4,0.48,0.4,0.73c0,1.06-0.65,1.17-0.92,1.17h-0.55
				l-5.1-0.2L124.6,324.66C124.6,324.66,124.6,324.66,124.6,324.66z M125.98,298.18c0.68,0,0.82,1.01,0.82,2.52l0.1,1.17
				c0.03,0.81,0.08,1.83,0.15,3.08c0.07,1.25,0.13,2.58,0.2,3.99c0.07,1.42,0.12,2.87,0.18,4.37c0.05,1.49,0.08,2.89,0.08,4.15
				c0,1.28-0.08,2.3-0.23,3.04c-0.16,0.78-0.47,1.4-0.9,1.83c-0.45,0.45-0.88,0.69-1.3,0.73c-0.67,0.08-1.01,0.25-1.01,0.53
				c0,0.14,0,0.32,0.52,0.32l5.17-0.25l5.65,0.2c0.06,0,0.17,0,0.17-0.42l0,0c0,0-0.03-0.06-0.15-0.17
				c-0.11-0.1-0.23-0.15-0.37-0.15c-1.83,0-3.06-0.52-3.67-1.56c-0.57-0.98-0.85-3.12-0.85-6.54c0-0.92-0.1-3.22-0.3-6.84
				c-0.2-3.63-0.3-7.13-0.3-10.39c0-3.36,0.17-5.38,0.53-6.17c0.39-0.85,1.03-1.34,1.91-1.46c0.93-0.12,1.21-0.26,1.28-0.31
				c0.04-0.03,0.16-0.11,0.16-0.42c0-0.12,0-0.27-0.47-0.27l-4.3-0.1c-0.73,0-1.04,0.16-1.17,0.29c-0.03,0.03-0.1,0.12-0.19,0.36
				c-0.09,0.26-0.16,0.42-0.19,0.49c-0.03,0.06-0.06,0.12-0.09,0.19c-0.03,0.08-0.07,0.19-0.12,0.33c-0.05,0.15-0.13,0.36-0.23,0.64
				l-1.16,2.52c-0.59,1.41-1.79,3.95-3.54,7.54l-6.43,13.26c-0.06,0.15-0.17,0.4-0.32,0.72c-0.15,0.31-0.26,0.56-0.34,0.76
				c-0.09,0.21-0.2,0.43-0.32,0.64c-0.14,0.23-0.27,0.41-0.41,0.55c-0.19,0.19-0.39,0.29-0.59,0.29c-0.26,0-0.46-0.15-1-1.11
				c-0.35-0.62-0.86-1.59-1.5-2.88c-0.65-1.3-1.27-2.59-1.87-3.87l-2.34-5.01c-0.96-2.06-1.75-3.76-2.37-5.09
				c-0.62-1.33-1.44-3.12-2.47-5.36l-2.14-4.66c-0.09-0.24-0.25-0.48-0.86-0.48l-3.73,0.1l-2.68-0.2c-0.49,0-0.49,0.21-0.49,0.37
				c0,0.16,0.03,0.31,0.36,0.38c2.26,0.52,3.76,1.48,4.46,2.84c0.68,1.33,1.01,3.42,1.01,6.38c0,2.86-0.12,6.87-0.35,11.91
				c-0.24,5.12-0.45,8.05-0.66,8.94c-0.21,0.92-0.58,1.67-1.08,2.24c-0.54,0.59-1.03,0.9-1.49,0.95c-0.8,0.03-1.15,0.19-1.15,0.32
				c0,0.17,0,0.42,0.67,0.42l4.08-0.15l5.21,0.2c0.23,0,0.3-0.04,0.3-0.05c0,0,0.05-0.1,0.05-0.45c0-0.04-0.16-0.21-0.92-0.3
				c-0.57-0.03-1.18-0.24-1.79-0.6c-1.23-0.71-1.83-2.46-1.83-5.36v-2.24l0.45-13.18c0-1.45,0.13-2.36,0.77-2.36
				c0.3,0,0.52,0.24,0.65,0.43c0.07,0.09,0.22,0.3,9.36,18.88c0.31,0.65,0.66,1.46,1.06,2.42c0.48,1.16,0.73,1.62,0.86,1.8
				c0.19,0.27,0.32,0.27,0.37,0.27c0.12,0,0.19-0.04,0.25-0.14c0.09-0.14,0.38-0.71,1.3-2.63c0.75-1.56,1.52-3.16,2.32-4.79
				l6.93-14.01c0.06-0.15,0.17-0.37,0.31-0.62l0.23-0.52c0.07-0.15,0.16-0.31,0.26-0.5c0.11-0.19,0.2-0.35,0.27-0.45
				c0.06-0.08,0.11-0.19,0.17-0.32c0.08-0.19,0.18-0.34,0.28-0.44c0.06-0.06,0.13-0.13,0.2-0.22
				C125.61,298.23,125.83,298.18,125.98,298.18z"/>
		</g>
		<g>
			<path d="M196.09,322.84l1.8-0.15c0.43,0,0.65,0.15,0.65,0.45c0,0.53-0.47,0.98-1.42,1.35s-2.08,0.55-3.39,0.55
				c-1.31,0-2.57-0.17-3.76-0.52c-1.2-0.35-2.21-0.76-3.04-1.25c-0.83-0.48-1.56-0.97-2.19-1.47c-0.63-0.5-1.14-0.92-1.52-1.27
				c-0.38-0.35-0.62-0.52-0.72-0.52c-0.1,0-0.34,0.17-0.72,0.52c-0.38,0.35-0.89,0.78-1.52,1.3s-1.4,1.04-2.29,1.57
				c-2.13,1.2-4.97,1.8-8.53,1.8c-2.36,0-4.49-0.34-6.38-1.02c-1.9-0.68-3.4-1.47-4.51-2.37c-1.11-0.9-2.06-2.19-2.84-3.89
				c-0.78-1.7-1.17-3.66-1.17-5.89c0-1.13,0.19-2.3,0.57-3.52c0.38-1.21,0.91-2.24,1.6-3.09c0.68-0.85,1.53-1.54,2.54-2.07
				c1.01-0.53,1.83-0.86,2.44-1c0.61-0.13,0.92-0.24,0.92-0.32c0-0.08-0.2-0.36-0.6-0.85c-0.4-0.48-0.8-1.21-1.2-2.19
				c-0.4-0.98-0.6-2.1-0.6-3.37c0-2.2,0.96-3.85,2.89-4.96c1.93-1.11,4.09-1.67,6.48-1.67c1.16,0,2.26,0.19,3.29,0.57
				c1.03,0.38,1.61,0.57,1.75,0.57l1.1-0.15c0.53,0,0.8,0.38,0.8,1.15l0.2,3.39c0,0.96-0.02,1.55-0.07,1.75
				c-0.05,0.2-0.19,0.3-0.42,0.3c-0.23,0-0.6-0.3-1.1-0.9c-0.5-0.6-1.03-1.25-1.6-1.97c-0.57-0.71-1.32-1.37-2.27-1.97
				c-0.95-0.6-2.06-0.9-3.34-0.9s-2.3,0.41-3.07,1.22c-0.76,0.82-1.15,1.66-1.15,2.54c0,0.88,0.46,1.98,1.37,3.29
				c0.91,1.31,1.85,2.47,2.79,3.47c0.95,1,2.48,2.55,4.59,4.66c2.11,2.11,4.33,4.16,6.66,6.16c2.33,2,3.61,2.99,3.86,2.99
				c0.25,0,0.47-0.15,0.67-0.45c0.47-0.63,0.7-1.72,0.7-3.27c0-1.55-0.17-2.69-0.52-3.44c-0.35-0.75-0.66-1.21-0.92-1.4
				c-0.27-0.18-0.62-0.38-1.07-0.6c-0.45-0.22-0.85-0.34-1.2-0.37c-0.35-0.03-0.61-0.09-0.77-0.17c-0.17-0.08-0.25-0.25-0.25-0.5
				c0-0.25,0.07-0.41,0.22-0.47c0.15-0.07,0.49-0.1,1.02-0.1l7.43,0.1c0.63,0,0.95,0.22,0.95,0.65c0,0.37-0.32,0.63-0.95,0.8
				c-0.23,0.07-0.46,0.27-0.67,0.6c-0.22,0.33-0.34,0.75-0.37,1.25c-0.03,0.5-0.08,1-0.15,1.5c-0.2,2.09-0.47,3.57-0.82,4.44
				c-0.35,0.87-0.65,1.55-0.9,2.05c-0.25,0.5-0.37,0.8-0.37,0.9c0,0.3,0.99,1.07,2.97,2.32c1.98,1.25,3.98,2.37,6.01,3.37
				C194.61,322.68,195.33,322.84,196.09,322.84z M161.14,317.71c1.06,1.2,2.56,2.19,4.49,2.97c1.93,0.78,3.85,1.17,5.76,1.17
				c1.91,0,3.56-0.24,4.94-0.72s2.42-0.96,3.12-1.45c0.7-0.48,1.05-0.82,1.05-1.02c0-0.13-0.43-0.52-1.3-1.17
				c-0.87-0.65-2.29-1.82-4.29-3.52c-1.99-1.7-3.62-3.17-4.89-4.44c-1.73-1.73-3.08-3.08-4.04-4.04c-0.97-0.96-1.52-1.53-1.67-1.7
				c-0.15-0.17-0.27-0.28-0.37-0.35c-0.1-0.07-0.2-0.13-0.3-0.2c-0.1-0.1-0.23-0.15-0.4-0.15c-1.1,0-2.28,0.7-3.54,2.09
				c-1.26,1.4-1.89,3.21-1.89,5.44C157.79,312.85,158.91,315.21,161.14,317.71z"/>
			<path d="M169.41,325.56c-2.39,0-4.58-0.35-6.51-1.04c-1.92-0.69-3.48-1.51-4.62-2.43c-1.15-0.93-2.15-2.28-2.95-4.02
				c-0.8-1.74-1.21-3.77-1.21-6.04c0-1.16,0.2-2.38,0.59-3.63c0.39-1.25,0.95-2.33,1.66-3.21c0.71-0.88,1.61-1.61,2.66-2.17
				c1.05-0.55,1.88-0.89,2.54-1.03c0.21-0.05,0.36-0.08,0.47-0.12c-0.08-0.1-0.19-0.25-0.36-0.45c-0.43-0.51-0.84-1.26-1.25-2.29
				c-0.42-1.02-0.63-2.2-0.63-3.51c0-2.33,1.04-4.11,3.08-5.29c1.98-1.14,4.22-1.72,6.67-1.72c1.2,0,2.35,0.2,3.42,0.6
				c1.31,0.49,1.58,0.55,1.63,0.55l1.03-0.15c0.41,0.03,1.22,0.14,1.22,1.52l0.2,3.37c0,1.35-0.05,1.7-0.09,1.86
				c-0.09,0.37-0.39,0.58-0.79,0.58c-0.37,0-0.78-0.31-1.39-1.03c-0.5-0.6-1.04-1.26-1.6-1.98c-0.54-0.68-1.27-1.31-2.17-1.88
				c-0.88-0.56-1.94-0.84-3.14-0.84c-1.18,0-2.1,0.36-2.79,1.1c-0.69,0.74-1.04,1.51-1.04,2.29c0,0.8,0.44,1.83,1.3,3.08
				c0.9,1.29,1.82,2.44,2.76,3.42c0.96,1.01,2.5,2.57,4.58,4.66c2.1,2.1,4.33,4.16,6.64,6.14c2.9,2.49,3.54,2.86,3.68,2.91
				c0.06-0.01,0.18-0.1,0.3-0.29c0.42-0.58,0.63-1.6,0.63-3.06c0-1.48-0.16-2.59-0.49-3.28c-0.42-0.9-0.68-1.17-0.8-1.25
				c-0.25-0.17-0.59-0.36-1.02-0.57c-0.4-0.2-0.76-0.31-1.07-0.34c-0.4-0.04-0.7-0.11-0.91-0.21c-0.17-0.08-0.46-0.3-0.46-0.83
				c0-0.54,0.28-0.74,0.45-0.82c0.14-0.06,0.4-0.13,1.18-0.13l7.43,0.1c1.19,0,1.32,0.72,1.32,1.02c0,0.38-0.21,0.89-1.23,1.16
				c-0.13,0.04-0.29,0.2-0.45,0.44c-0.18,0.28-0.29,0.63-0.31,1.07c-0.03,0.5-0.08,1.01-0.15,1.52c-0.2,2.13-0.48,3.62-0.85,4.53
				c-0.35,0.87-0.66,1.57-0.91,2.07c-0.21,0.43-0.29,0.62-0.32,0.71c0.11,0.16,0.6,0.65,2.78,2.03c1.96,1.23,3.97,2.36,5.97,3.35
				c0.61,0.3,1.27,0.46,1.96,0.46l1.78-0.15c0,0,0,0,0,0c0.98,0,1.05,0.63,1.05,0.82c0,0.7-0.56,1.27-1.66,1.7
				c-0.99,0.38-2.18,0.57-3.53,0.57c-1.34,0-2.65-0.18-3.87-0.54c-1.22-0.35-2.27-0.79-3.13-1.28c-0.84-0.49-1.59-0.99-2.24-1.5
				c-0.64-0.5-1.16-0.94-1.54-1.29c-0.25-0.23-0.39-0.34-0.47-0.39c-0.08,0.05-0.22,0.16-0.47,0.39c-0.39,0.35-0.9,0.79-1.54,1.31
				c-0.64,0.52-1.43,1.06-2.34,1.6C175.95,324.94,173.02,325.56,169.41,325.56z M169.56,289.36c-2.32,0-4.43,0.54-6.29,1.62
				c-1.82,1.05-2.7,2.57-2.7,4.64c0,1.21,0.19,2.29,0.57,3.22c0.38,0.94,0.77,1.65,1.14,2.1c0.64,0.77,0.69,0.93,0.69,1.09
				c0,0.4-0.46,0.53-1.22,0.69c-0.58,0.13-1.37,0.45-2.35,0.96c-0.96,0.5-1.78,1.17-2.42,1.97c-0.65,0.81-1.17,1.81-1.53,2.97
				c-0.37,1.17-0.56,2.32-0.56,3.4c0,2.16,0.38,4.09,1.14,5.73c0.75,1.63,1.67,2.9,2.74,3.75c1.08,0.87,2.56,1.65,4.4,2.31
				c1.85,0.66,3.95,1,6.25,1c3.47,0,6.28-0.59,8.34-1.75c0.87-0.52,1.63-1.04,2.24-1.53c0.63-0.51,1.13-0.94,1.51-1.28
				c0.57-0.52,0.79-0.62,0.98-0.62c0.19,0,0.4,0.1,0.98,0.62c0.37,0.34,0.88,0.76,1.5,1.25c0.62,0.49,1.34,0.97,2.15,1.44
				c0.8,0.47,1.8,0.87,2.96,1.21c1.16,0.34,2.39,0.51,3.66,0.51c1.26,0,2.35-0.18,3.26-0.52c0.54-0.21,1.18-0.55,1.18-1
				c0-0.03-0.06-0.07-0.27-0.07l-1.8,0.15c-0.82,0-1.6-0.18-2.31-0.54c-2.03-1-4.06-2.14-6.04-3.38c-2.9-1.83-3.14-2.29-3.14-2.64
				c0-0.12,0.03-0.3,0.41-1.07c0.24-0.49,0.54-1.17,0.89-2.02c0.33-0.83,0.6-2.29,0.8-4.33c0.07-0.5,0.12-1,0.15-1.49
				c0.04-0.56,0.18-1.04,0.43-1.43c0.27-0.42,0.56-0.66,0.88-0.76c0.26-0.07,0.68-0.21,0.68-0.44c0-0.1,0-0.27-0.57-0.27l-7.43-0.1
				c-0.63,0-0.82,0.05-0.86,0.07c0,0-0.01,0.04-0.01,0.13c0,0.02,0,0.14,0.04,0.16c0.09,0.04,0.27,0.1,0.64,0.14
				c0.39,0.04,0.84,0.18,1.32,0.41c0.46,0.22,0.84,0.43,1.12,0.63c0.33,0.23,0.66,0.72,1.05,1.55c0.38,0.81,0.56,1.98,0.56,3.6
				c0,1.65-0.25,2.79-0.77,3.49c-0.26,0.39-0.59,0.6-0.97,0.6c-0.22,0-0.51,0-4.11-3.08c-2.32-1.99-4.57-4.07-6.68-6.18
				c-2.09-2.09-3.63-3.66-4.59-4.67c-0.96-1.01-1.91-2.19-2.83-3.51c-0.97-1.39-1.44-2.54-1.44-3.51c0-0.97,0.42-1.92,1.25-2.8
				c0.83-0.89,1.96-1.34,3.34-1.34c1.35,0,2.54,0.32,3.54,0.96c0.98,0.62,1.77,1.31,2.36,2.05c0.56,0.71,1.09,1.37,1.59,1.96
				c0.59,0.71,0.81,0.76,0.82,0.76c0.07-0.09,0.11-0.41,0.11-1.67l-0.2-3.37c0-0.79-0.28-0.79-0.42-0.79l-1.05,0.15
				c-0.16,0.01-0.32,0-1.93-0.59C171.74,289.54,170.67,289.36,169.56,289.36z M162.22,302.12L162.22,302.12L162.22,302.12z
				 M171.38,322.22c-1.95,0-3.94-0.4-5.9-1.2c-1.97-0.8-3.53-1.83-4.63-3.07c-2.28-2.55-3.44-5.02-3.44-7.33
				c0-2.31,0.67-4.23,1.99-5.69c1.33-1.47,2.62-2.22,3.82-2.22c0.26,0,0.49,0.09,0.66,0.26l0.24,0.15c0.13,0.09,0.27,0.22,0.44,0.41
				c0.1,0.11,0.47,0.5,1.66,1.68l4.04,4.04c1.23,1.23,2.87,2.72,4.86,4.42c2.02,1.71,3.42,2.86,4.27,3.5
				c1.35,1.01,1.45,1.23,1.45,1.47c0,0.3-0.21,0.64-1.21,1.33c-0.73,0.5-1.78,0.99-3.21,1.49
				C175.03,321.97,173.33,322.22,171.38,322.22z M163.23,303.47c-0.98,0-2.08,0.66-3.26,1.97c-1.19,1.32-1.8,3.06-1.8,5.18
				c0,2.12,1.09,4.42,3.25,6.83l0,0c1.02,1.15,2.48,2.11,4.35,2.87c1.87,0.76,3.77,1.14,5.62,1.14c1.86,0,3.48-0.24,4.81-0.7
				c1.34-0.47,2.36-0.94,3.03-1.4c0.54-0.37,0.75-0.58,0.84-0.68c-0.12-0.12-0.4-0.38-1.1-0.9c-0.87-0.65-2.28-1.8-4.31-3.53
				c-2.04-1.74-3.65-3.19-4.91-4.46l-4.04-4.04c-0.96-0.96-1.53-1.53-1.69-1.71c-0.17-0.19-0.26-0.26-0.3-0.29l-0.3-0.2
				C163.35,303.5,163.32,303.47,163.23,303.47z"/>
		</g>
		<g>
			<path d="M216.59,288.28c0.43,0,1.79,0.07,4.06,0.2c2.28,0.13,6.76,0.2,13.44,0.2c6.68,0,10.72-0.1,12.12-0.3
				c0.37,0,0.61,0.1,0.75,0.3c0.13,0.2,0.2,0.38,0.2,0.55l0.3,4.04c0,0.83-0.05,1.35-0.15,1.57c-0.1,0.22-0.32,0.32-0.65,0.32
				c-0.27,0-0.49-0.34-0.67-1.02c-0.18-0.68-0.37-1.2-0.57-1.57c-0.5-0.86-1.94-1.3-4.34-1.3h-6.48c-0.8,0-1.29,0.16-1.47,0.47
				c-0.18,0.32-0.27,1.22-0.27,2.72v2.44l-0.15,18.25l-0.05,3.24c0,1.43,0.22,2.36,0.67,2.79c0.45,0.43,0.94,0.76,1.47,0.97
				c0.53,0.22,0.98,0.34,1.35,0.37c0.93,0.07,1.4,0.37,1.4,0.9c0,0.37-0.08,0.6-0.25,0.7c-0.17,0.1-0.48,0.15-0.95,0.15l-5.54-0.4
				l-5.09,0.35c-1.23,0-1.84-0.27-1.84-0.8c0-0.33,0.1-0.56,0.3-0.67c0.2-0.12,0.59-0.22,1.17-0.3c0.58-0.08,0.96-0.14,1.12-0.17
				c1.13-0.26,1.76-0.93,1.9-1.99c0.33-2.93,0.5-9.21,0.5-18.85l-0.05-8.93c0-0.63-0.18-1.02-0.55-1.17
				c-0.37-0.15-1.58-0.22-3.64-0.22c-2.06,0-3.68,0.07-4.86,0.2c-1.18,0.13-1.87,0.26-2.07,0.37c-0.2,0.12-0.44,0.36-0.72,0.72
				c-0.28,0.37-0.52,0.79-0.7,1.27c-0.18,0.48-0.31,0.87-0.37,1.17c-0.1,0.76-0.42,1.15-0.95,1.15c-0.37,0-0.55-0.28-0.55-0.85
				c0-1.33,0.08-2.53,0.25-3.61c0.17-1.08,0.26-1.7,0.27-1.87c0.02-0.17,0.03-0.27,0.05-0.32s0.03-0.13,0.05-0.25
				c0.02-0.12,0.04-0.2,0.07-0.25c0.03-0.05,0.07-0.12,0.12-0.2c0.05-0.08,0.11-0.14,0.17-0.17c0.07-0.03,0.15-0.07,0.25-0.1
				C215.84,288.32,216.16,288.28,216.59,288.28z"/>
			<path d="M236.34,324.66l-5.56-0.4l-5.03,0.35c0,0,0,0-0.01,0c-1.49,0-2.24-0.39-2.24-1.17c0-0.59,0.26-0.87,0.48-1
				c0.25-0.14,0.66-0.25,1.31-0.35c0.57-0.08,0.94-0.14,1.1-0.17c0.97-0.23,1.48-0.76,1.6-1.67c0.33-2.9,0.5-9.22,0.5-18.8
				l-0.05-8.92c0-0.46-0.11-0.74-0.31-0.83c-0.18-0.07-0.87-0.2-3.5-0.2c-2.03,0-3.65,0.07-4.82,0.2c-1.6,0.18-1.88,0.3-1.92,0.33
				c-0.11,0.06-0.3,0.22-0.61,0.63c-0.26,0.33-0.48,0.73-0.64,1.17c-0.18,0.46-0.3,0.84-0.36,1.12c-0.16,1.25-0.89,1.44-1.31,1.44
				c-0.28,0-0.92-0.12-0.92-1.22c0-1.35,0.09-2.58,0.25-3.67c0.16-1.07,0.25-1.68,0.27-1.85c0.02-0.25,0.05-0.35,0.07-0.4
				c0.01-0.04,0.02-0.1,0.04-0.19c0.03-0.18,0.07-0.3,0.14-0.4l0.11-0.18c0.09-0.15,0.2-0.25,0.33-0.32
				c0.08-0.04,0.18-0.08,0.3-0.12c0.24-0.08,0.59-0.12,1.07-0.12c0.43,0,1.73,0.06,4.09,0.2c2.26,0.13,6.77,0.2,13.42,0.2
				c6.64,0,10.7-0.1,12.06-0.29c0.01,0,0.01,0,0.02,0c0.54,0,0.89,0.16,1.09,0.46c0.17,0.26,0.26,0.52,0.26,0.76l0.3,4.01
				c0,1.21-0.1,1.57-0.18,1.76c-0.11,0.25-0.38,0.54-0.99,0.54c-0.62,0-0.89-0.74-1.04-1.3c-0.17-0.65-0.35-1.15-0.54-1.49
				c-0.29-0.5-1.22-1.1-4.01-1.1h-6.48c-0.91,0-1.11,0.22-1.15,0.29c-0.07,0.12-0.22,0.6-0.22,2.53v2.44l-0.2,21.5
				c0,1.64,0.3,2.27,0.56,2.52c0.41,0.4,0.87,0.7,1.35,0.89c0.49,0.2,0.91,0.32,1.24,0.35c1.44,0.1,1.74,0.75,1.74,1.27
				c0,0.51-0.15,0.85-0.43,1.02C237.24,324.6,236.88,324.66,236.34,324.66z M230.77,323.51l5.59,0.4c0.54,0,0.7-0.08,0.73-0.1l0,0
				c0,0,0.07-0.07,0.07-0.38c0-0.3-0.35-0.47-1.05-0.52c-0.41-0.04-0.9-0.17-1.46-0.4c-0.57-0.23-1.11-0.58-1.59-1.05
				c-0.53-0.51-0.79-1.51-0.79-3.06l0.05-3.25l0.15-20.69c0-2.08,0.17-2.64,0.33-2.91c0.26-0.44,0.84-0.66,1.79-0.66h6.48
				c2.56,0,4.09,0.49,4.66,1.48c0.22,0.41,0.42,0.95,0.61,1.66c0.18,0.66,0.33,0.75,0.34,0.75c0.23,0,0.27-0.08,0.28-0.11
				c0.03-0.06,0.12-0.33,0.12-1.41l-0.3-4.01c0-0.09-0.02-0.2-0.14-0.37c-0.07-0.11-0.28-0.13-0.44-0.13
				c-1.37,0.2-5.35,0.3-12.12,0.3c-6.66,0-11.19-0.07-13.46-0.2c-2.31-0.13-3.63-0.2-4.04-0.2c-0.48,0-0.72,0.04-0.83,0.08
				c-0.08,0.03-0.15,0.05-0.2,0.08l-0.13,0.21c-0.02,0.02-0.03,0.05-0.04,0.13c-0.02,0.15-0.04,0.25-0.06,0.31
				c-0.01,0.04-0.02,0.12-0.03,0.24c-0.02,0.17-0.11,0.8-0.28,1.89c-0.16,1.05-0.25,2.25-0.25,3.56c0,0.47,0.13,0.47,0.17,0.47
				c0.14,0,0.47,0,0.58-0.82c0.08-0.35,0.2-0.75,0.4-1.26c0.19-0.51,0.45-0.97,0.75-1.37c0.32-0.41,0.59-0.68,0.83-0.82
				c0.18-0.11,0.59-0.24,2.22-0.42c1.2-0.13,2.85-0.2,4.9-0.2c2.84,0,3.52,0.14,3.78,0.25c0.52,0.21,0.78,0.72,0.78,1.52l0.05,8.92
				c0,9.61-0.17,15.96-0.5,18.89c-0.15,1.22-0.91,2.02-2.18,2.32c-0.18,0.04-0.56,0.1-1.15,0.18c-0.7,0.1-0.95,0.2-1.04,0.25
				c-0.09,0.05-0.11,0.22-0.11,0.35c0,0.26,0.56,0.42,1.47,0.42L230.77,323.51z"/>
		</g>
		<g>
			<path d="M252.79,324.09l-4.29,0.2c-0.97,0-1.45-0.2-1.45-0.6c0-0.47,0.25-0.78,0.75-0.95c1.06-0.4,1.99-1.29,2.79-2.67
				c0.8-1.38,2.8-5.55,6.01-12.52c3.21-6.96,6.06-13.11,8.55-18.43c0.23-0.5,0.44-0.81,0.62-0.95c0.18-0.13,0.45-0.2,0.8-0.2
				c0.35,0,0.57,0.07,0.67,0.2c0.1,0.13,0.28,0.58,0.55,1.35c0.27,0.77,0.47,1.35,0.62,1.75c0.15,0.4,0.39,1.05,0.72,1.95
				c0.33,0.9,0.86,2.24,1.6,4.04c0.73,1.8,2.4,5.73,5.01,11.79c2.61,6.07,4.12,9.51,4.51,10.32c0.4,0.82,0.95,1.51,1.65,2.09
				c0.7,0.58,1.31,0.9,1.82,0.95c0.51,0.05,0.95,0.13,1.3,0.25c0.35,0.12,0.52,0.37,0.52,0.77c0,0.5-0.45,0.75-1.35,0.75l-4.49-0.3
				l-4.64,0.2c-1.03,0-1.69-0.04-1.97-0.12c-0.28-0.08-0.42-0.26-0.42-0.52c0-0.27,0.13-0.47,0.4-0.62c0.27-0.15,0.55-0.25,0.85-0.3
				c0.3-0.05,0.58-0.2,0.85-0.45c0.27-0.25,0.4-0.67,0.4-1.25c0-0.58-0.42-2-1.25-4.26c-0.83-2.26-1.53-3.92-2.09-4.99
				c-0.3-0.56-0.98-0.85-2.05-0.85l-6.03,0.1h-2.64c-1.5,0-2.43,0.08-2.82,0.25s-0.7,0.52-0.95,1.05c-0.25,0.53-0.61,1.27-1.07,2.22
				c-0.47,0.95-0.78,1.6-0.95,1.97c-0.17,0.37-0.37,0.83-0.6,1.4c-0.43,1-0.65,1.83-0.65,2.49c0,0.67,0.19,1.2,0.57,1.6
				c0.38,0.4,0.81,0.63,1.27,0.7c1.23,0.1,1.85,0.42,1.85,0.95c0,0.23-0.05,0.41-0.15,0.52c-0.1,0.12-0.33,0.17-0.7,0.17
				L252.79,324.09z M261.97,301.17c-1.6,3.67-2.39,5.71-2.39,6.11c0,0.4,0.15,0.65,0.45,0.75c0.3,0.1,1,0.15,2.09,0.15h1.55
				l4.74-0.05c1.3,0,1.95-0.24,1.95-0.72c0-0.48-0.82-2.56-2.44-6.23c-1.63-3.67-2.66-5.51-3.09-5.51
				C264.51,295.66,263.56,297.5,261.97,301.17z"/>
			<path d="M248.52,324.66c-1.23,0-1.84-0.33-1.84-0.97c0-0.62,0.36-1.09,1.01-1.3c0.96-0.36,1.84-1.21,2.59-2.5
				c0.79-1.36,2.8-5.56,5.99-12.49c3.2-6.95,6.08-13.15,8.55-18.43c0.26-0.57,0.5-0.92,0.74-1.09c0.25-0.18,0.59-0.27,1.02-0.27
				c0.48,0,0.8,0.11,0.97,0.35c0.09,0.12,0.23,0.39,0.6,1.45c0.27,0.76,0.47,1.34,0.62,1.74l0.72,1.95
				c0.33,0.88,0.86,2.24,1.59,4.03c0.73,1.79,2.41,5.75,5.01,11.79c2.55,5.93,4.11,9.49,4.51,10.31c0.37,0.76,0.89,1.42,1.55,1.97
				c0.64,0.53,1.18,0.82,1.62,0.86c0.54,0.05,1,0.14,1.38,0.27c0.5,0.17,0.78,0.57,0.78,1.13c0,0.42-0.22,1.12-1.72,1.12l-4.51-0.3
				l-4.6,0.2c0,0-0.01,0-0.01,0c-1.45,0-1.88-0.08-2.08-0.14c-0.44-0.13-0.69-0.45-0.69-0.88c0-0.28,0.1-0.68,0.59-0.95
				c0.3-0.17,0.63-0.28,0.97-0.34c0.23-0.04,0.44-0.15,0.65-0.35c0.19-0.17,0.28-0.5,0.28-0.97c0-0.37-0.21-1.38-1.22-4.13
				c-0.82-2.23-1.52-3.9-2.07-4.94c-0.23-0.43-0.81-0.65-1.71-0.65l-8.68,0.1c-1.88,0-2.48,0.14-2.67,0.22
				c-0.29,0.13-0.55,0.42-0.76,0.86c-0.25,0.53-0.61,1.27-1.07,2.22c-0.46,0.94-0.78,1.6-0.94,1.96c-0.17,0.36-0.36,0.82-0.59,1.38
				c-0.41,0.95-0.62,1.74-0.62,2.35c0,0.57,0.15,1.01,0.47,1.34c0.33,0.34,0.67,0.53,1.05,0.59c1.43,0.12,2.17,0.56,2.17,1.32
				c0,0.32-0.08,0.58-0.24,0.77c-0.18,0.21-0.49,0.31-0.98,0.31l-4.13-0.05L248.52,324.66
				C248.52,324.66,248.52,324.66,248.52,324.66z M266.58,288.36c-0.33,0-0.5,0.07-0.58,0.13c-0.06,0.04-0.23,0.21-0.5,0.8
				c-2.47,5.28-5.35,11.48-8.55,18.42c-3.2,6.94-5.23,11.17-6.02,12.55c-0.84,1.45-1.84,2.4-2.98,2.83
				c-0.45,0.15-0.51,0.38-0.51,0.6c0,0.04,0.19,0.22,1.07,0.22l4.29-0.2l4.14,0.05c0.33,0,0.42-0.05,0.42-0.06
				c0,0,0.05-0.07,0.05-0.27c0-0.28-0.56-0.5-1.5-0.57c-0.57-0.08-1.07-0.35-1.51-0.81c-0.45-0.47-0.68-1.09-0.68-1.85
				c0-0.71,0.23-1.6,0.68-2.64c0.23-0.56,0.43-1.03,0.6-1.4c0.17-0.37,0.48-1.03,0.95-1.98c0.46-0.94,0.82-1.68,1.07-2.21
				c0.29-0.62,0.67-1.03,1.14-1.23c0.28-0.12,0.89-0.28,2.97-0.28h2.64l6.03-0.1c1.21,0,2.01,0.35,2.38,1.05
				c0.57,1.08,1.28,2.77,2.11,5.03c1.14,3.1,1.27,3.99,1.27,4.39c0,0.69-0.17,1.2-0.52,1.52c-0.32,0.3-0.67,0.48-1.04,0.54
				c-0.26,0.04-0.5,0.13-0.73,0.26c-0.18,0.1-0.21,0.2-0.21,0.3c0,0.07,0,0.12,0.15,0.16c0.17,0.05,0.63,0.11,1.87,0.11l4.62-0.2
				l4.53,0.3c0.62,0,0.95-0.13,0.95-0.37c0-0.27-0.1-0.36-0.27-0.42c-0.32-0.11-0.73-0.19-1.21-0.23c-0.6-0.06-1.26-0.4-2.02-1.03
				c-0.74-0.61-1.32-1.36-1.74-2.22c-0.41-0.84-1.93-4.32-4.52-10.34c-2.6-6.04-4.29-10.01-5.01-11.8c-0.73-1.8-1.27-3.16-1.6-4.05
				l-0.72-1.94c-0.15-0.4-0.36-0.98-0.63-1.75c-0.35-1-0.47-1.21-0.5-1.25c0,0,0,0,0,0C266.94,288.41,266.85,288.36,266.58,288.36z
				 M262.12,308.56c-1.53,0-1.99-0.1-2.21-0.17c-0.27-0.09-0.71-0.35-0.71-1.1c0-0.33,0.29-1.34,2.42-6.26l0,0
				c2.49-5.74,2.85-5.74,3.19-5.74c0.38,0,0.89,0,3.43,5.73c2.19,4.95,2.48,6.01,2.48,6.39c0,1.1-1.75,1.1-2.32,1.1L262.12,308.56z
				 M262.31,301.32c-2.11,4.87-2.36,5.79-2.36,5.96c0,0.33,0.13,0.37,0.19,0.39c0.14,0.05,0.6,0.13,1.97,0.13h1.55l4.73-0.05
				c1.29,0,1.57-0.25,1.57-0.35c0-0.19-0.23-1.17-2.41-6.08c-1.73-3.91-2.45-4.94-2.71-5.21
				C264.6,296.43,263.95,297.55,262.31,301.32L262.31,301.32z"/>
		</g>
		<g>
			<path d="M315.38,288.73l4.44-0.1c0.63,0,0.95,0.23,0.95,0.7c0,0.37-0.37,0.71-1.1,1.05c-0.3,0.13-0.65,0.42-1.05,0.85
				c-0.4,0.43-0.75,1-1.05,1.7l-11.12,25.33c-0.8,1.8-1.48,3.38-2.04,4.76c-0.57,1.38-0.9,2.15-1,2.32c-0.1,0.17-0.23,0.25-0.4,0.25
				c-0.6,0-1.34-1.11-2.22-3.34c-0.88-2.23-2.28-5.42-4.19-9.57c-1.91-4.16-3.38-7.4-4.41-9.72c-1.03-2.33-1.77-4.04-2.22-5.14
				c-0.45-1.1-0.87-2.08-1.27-2.94c-0.6-1.43-1.15-2.42-1.65-2.97c-0.5-0.55-1.06-0.96-1.67-1.22c-0.62-0.27-1.11-0.4-1.47-0.4
				c-0.93,0.07-1.4-0.23-1.4-0.9c0-0.47,0.46-0.7,1.4-0.7l5.49,0.2l3.24-0.1c0.76,0,1.23,0.03,1.4,0.1
				c0.17,0.07,0.25,0.21,0.25,0.42c0,0.22-0.17,0.41-0.5,0.57c-1.03,0.53-1.55,1.07-1.55,1.62c0,0.55,0.06,1.05,0.17,1.5
				c0.12,0.45,0.37,1.14,0.77,2.07c0.4,0.93,0.81,1.86,1.22,2.79c0.42,0.93,1.1,2.43,2.05,4.51c0.95,2.08,1.87,4.13,2.77,6.16
				c2.79,6.42,4.46,9.62,4.99,9.62c0.17,0,1.12-2.01,2.87-6.03c1.75-4.02,3.47-8.23,5.16-12.62c1.69-4.39,2.54-6.92,2.54-7.58
				c0-0.66-0.19-1.14-0.57-1.42c-0.38-0.28-0.79-0.46-1.22-0.52c-1.2-0.13-1.8-0.4-1.8-0.8c0-0.23,0.06-0.37,0.17-0.42
				c0.12-0.05,0.41-0.07,0.87-0.07L315.38,288.73z"/>
			<path d="M303.01,325.96c-0.8,0-1.59-1.1-2.57-3.58c-0.87-2.19-2.27-5.41-4.18-9.55c-1.91-4.15-3.39-7.42-4.42-9.73
				c-1.01-2.28-1.76-4.01-2.22-5.14c-0.43-1.06-0.86-2.04-1.26-2.93c-0.58-1.39-1.11-2.36-1.58-2.87c-0.46-0.5-0.98-0.88-1.54-1.13
				c-0.57-0.25-1.01-0.37-1.32-0.37c-0.63,0.05-1.1-0.07-1.41-0.36c-0.24-0.22-0.36-0.53-0.36-0.91c0-0.49,0.31-1.07,1.77-1.07
				l5.5,0.2l3.22-0.1c0,0,0,0,0,0c1.08,0,1.38,0.06,1.54,0.13c0.31,0.13,0.49,0.41,0.49,0.77c0,0.37-0.24,0.67-0.71,0.91
				c-0.86,0.45-1.34,0.9-1.34,1.29c0,0.52,0.05,0.99,0.16,1.4c0.11,0.42,0.36,1.1,0.75,2.02c0.4,0.93,0.8,1.86,1.22,2.79
				c0.42,0.93,1.1,2.43,2.04,4.51c0.95,2.08,1.87,4.13,2.77,6.16c3,6.9,4.14,8.78,4.56,9.27c0.27-0.48,0.95-1.87,2.6-5.68
				c1.74-4,3.47-8.24,5.16-12.6c2.08-5.39,2.52-7.02,2.52-7.45c0-0.54-0.14-0.91-0.42-1.12c-0.33-0.24-0.69-0.4-1.05-0.45
				c-0.9-0.1-2.11-0.33-2.11-1.17c0-0.5,0.22-0.69,0.4-0.77c0.13-0.05,0.34-0.1,1.02-0.1l3.14,0.05l4.43-0.1
				c1.2,0,1.33,0.75,1.33,1.07c0,0.53-0.43,0.99-1.32,1.39c-0.25,0.11-0.56,0.37-0.93,0.76c-0.37,0.4-0.7,0.93-0.98,1.59
				l-11.12,25.33c-0.79,1.78-1.48,3.38-2.04,4.75c-0.76,1.86-0.95,2.25-1.02,2.37C303.56,325.81,303.31,325.96,303.01,325.96z
				 M283.89,289.9c0.45,0,0.97,0.14,1.64,0.43c0.66,0.29,1.27,0.73,1.8,1.31c0.53,0.59,1.1,1.6,1.71,3.08
				c0.41,0.88,0.84,1.88,1.27,2.94c0.46,1.12,1.21,2.85,2.21,5.12c1.02,2.31,2.51,5.58,4.41,9.72c1.91,4.16,3.32,7.39,4.2,9.59
				c1.19,3.02,1.8,3.1,1.87,3.1c0.01,0,0.04,0,0.08-0.07c0.05-0.08,0.24-0.49,0.97-2.27c0.57-1.38,1.26-2.99,2.05-4.77l11.12-25.33
				c0.31-0.73,0.69-1.34,1.11-1.8c0.44-0.47,0.82-0.78,1.17-0.94c0.65-0.29,0.88-0.56,0.88-0.7c0-0.13,0-0.32-0.57-0.32l-4.44,0.1
				l-3.14-0.05c-0.39,0-0.58,0.02-0.66,0.03c0,0.02-0.01,0.05-0.01,0.09c0,0,0.12,0.28,1.46,0.42c0.51,0.08,0.97,0.28,1.4,0.59
				c0.48,0.36,0.73,0.94,0.73,1.72c0,0.46-0.27,1.75-2.57,7.72c-1.69,4.37-3.43,8.62-5.17,12.63c-2.72,6.26-2.87,6.26-3.21,6.26
				c-0.42,0-1.04,0-5.33-9.85c-0.9-2.02-1.82-4.08-2.77-6.15c-0.95-2.08-1.63-3.58-2.05-4.52c-0.42-0.93-0.82-1.87-1.22-2.8
				c-0.41-0.96-0.67-1.66-0.79-2.12c-0.12-0.47-0.19-1.01-0.19-1.59c0-0.71,0.57-1.35,1.75-1.95c0.24-0.12,0.3-0.21,0.3-0.24
				c-0.04-0.09-0.26-0.15-1.27-0.15l-3.23,0.1l-5.51-0.2c-0.29,0-1.01,0.03-1.01,0.32c0,0.25,0.09,0.34,0.12,0.37
				C283.15,289.88,283.46,289.94,283.89,289.9C283.88,289.9,283.89,289.9,283.89,289.9z"/>
		</g>
		<g>
			<path d="M329.49,306.39l0.15-8.63c0-0.9-0.03-2.41-0.1-4.54c-0.03-0.96-0.45-1.71-1.25-2.25c-0.8-0.53-1.55-0.81-2.24-0.82
				c-0.7-0.02-1.09-0.08-1.17-0.2c-0.08-0.12-0.12-0.29-0.12-0.52c0-0.6,0.45-0.9,1.35-0.9l1.35,0.1l4.34,0.2l5.24-0.2
				c0.56,0,0.85,0.17,0.85,0.5c0,0.47-0.2,0.77-0.6,0.92c-0.4,0.15-0.84,0.25-1.32,0.3s-0.95,0.42-1.4,1.1
				c-0.45,0.68-0.71,1.69-0.77,3.02c-0.07,1.33-0.15,4.97-0.25,10.92c-0.1,5.95-0.15,9.28-0.15,9.97v2c0,2.39,0.41,3.71,1.22,3.96
				c0.81,0.25,1.52,0.37,2.12,0.37c4.99,0,8.58-0.4,10.77-1.2c1.99-0.73,3.19-1.5,3.59-2.29c0.43-0.83,0.81-1.25,1.15-1.25
				c0.4,0,0.6,0.28,0.6,0.85c0,1.43-0.72,2.88-2.15,4.34c-1.43,1.46-2.68,2.2-3.74,2.2c-2.39,0-5.09-0.08-8.1-0.25
				c-3.01-0.17-4.88-0.25-5.61-0.25l-6.23,0.4c-0.97,0-1.45-0.2-1.45-0.6c0-0.23,0.09-0.42,0.27-0.57c0.18-0.15,0.44-0.22,0.77-0.22
				c0.33,0,0.76-0.2,1.3-0.6c0.53-0.4,0.93-1.22,1.2-2.47c0.27-1.25,0.4-3.65,0.4-7.21V306.39z"/>
			<path d="M346.94,324.71c-2.38,0-5.11-0.08-8.12-0.25c-3.04-0.17-4.87-0.25-5.59-0.25l-6.21,0.4c0,0,0,0,0,0
				c-1.23,0-1.84-0.33-1.84-0.97c0-0.34,0.14-0.64,0.41-0.86c0.25-0.21,0.59-0.31,1.01-0.31c0.14,0,0.46-0.07,1.07-0.52
				c0.45-0.34,0.81-1.1,1.05-2.25c0.26-1.22,0.39-3.61,0.39-7.13v-6.19l0.15-8.63c0-0.89-0.03-2.41-0.1-4.52
				c-0.03-0.84-0.38-1.48-1.08-1.95c-0.73-0.49-1.42-0.74-2.04-0.76c-1.03-0.03-1.32-0.15-1.47-0.36c-0.13-0.18-0.2-0.43-0.2-0.74
				c0-0.47,0.22-1.27,1.72-1.27l1.37,0.1l4.33,0.2l5.2-0.2h0c1.12,0,1.24,0.61,1.24,0.87c0,0.62-0.3,1.07-0.84,1.27
				c-0.43,0.16-0.91,0.27-1.42,0.32c-0.36,0.04-0.74,0.35-1.12,0.93c-0.41,0.62-0.65,1.57-0.71,2.83
				c-0.07,1.32-0.15,4.89-0.25,10.91c-0.1,6.02-0.15,9.29-0.15,9.97v2c0,2.88,0.6,3.5,0.96,3.61c0.78,0.24,1.45,0.36,2.01,0.36
				c4.92,0,8.5-0.39,10.64-1.17c2.35-0.86,3.14-1.62,3.38-2.11c0.52-0.99,0.99-1.45,1.48-1.45c0.29,0,0.97,0.12,0.97,1.22
				c0,1.52-0.76,3.07-2.25,4.6C349.43,323.96,348.12,324.71,346.94,324.71z M333.21,323.47c0.76,0,2.6,0.08,5.64,0.25
				c3,0.17,5.72,0.25,8.08,0.25c0.95,0,2.12-0.7,3.47-2.08c1.35-1.38,2.04-2.76,2.04-4.08c0-0.47-0.14-0.47-0.22-0.47
				c0,0-0.28,0.01-0.81,1.04c-0.45,0.89-1.69,1.7-3.79,2.47c-2.23,0.81-5.89,1.22-10.9,1.22c-0.63,0-1.38-0.13-2.23-0.39
				c-1.01-0.31-1.49-1.68-1.49-4.32v-2c0-0.69,0.05-3.95,0.15-9.98c0.1-6.03,0.18-9.61,0.25-10.93c0.07-1.39,0.35-2.47,0.83-3.21
				c0.52-0.79,1.07-1.2,1.67-1.26c0.45-0.05,0.86-0.14,1.23-0.28c0.18-0.07,0.35-0.19,0.35-0.57c0-0.1-0.3-0.12-0.47-0.12l-5.22,0.2
				l-5.73-0.3c-0.94,0-0.94,0.37-0.94,0.52c0,0.19,0.03,0.27,0.05,0.29c0-0.03,0.2,0.04,0.88,0.05c0.77,0.02,1.59,0.32,2.44,0.88
				c0.9,0.6,1.38,1.46,1.42,2.54c0.07,2.12,0.1,3.65,0.1,4.55l-0.15,8.63v6.18c0,3.62-0.13,6-0.41,7.28
				c-0.29,1.35-0.73,2.23-1.34,2.69c-0.61,0.45-1.1,0.67-1.52,0.67c-0.24,0-0.42,0.05-0.54,0.14c-0.09,0.08-0.13,0.16-0.13,0.28
				c0,0.04,0.19,0.22,1.07,0.22l6.21-0.4C333.21,323.47,333.21,323.47,333.21,323.47z"/>
		</g>
		<g>
			<path d="M362.55,324.09l-4.29,0.2c-0.97,0-1.45-0.2-1.45-0.6c0-0.47,0.25-0.78,0.75-0.95c1.06-0.4,1.99-1.29,2.79-2.67
				c0.8-1.38,2.8-5.55,6.01-12.52c3.21-6.96,6.06-13.11,8.55-18.43c0.23-0.5,0.44-0.81,0.62-0.95c0.18-0.13,0.45-0.2,0.8-0.2
				c0.35,0,0.57,0.07,0.67,0.2c0.1,0.13,0.28,0.58,0.55,1.35c0.27,0.77,0.47,1.35,0.62,1.75c0.15,0.4,0.39,1.05,0.72,1.95
				c0.33,0.9,0.86,2.24,1.6,4.04c0.73,1.8,2.4,5.73,5.01,11.79c2.61,6.07,4.11,9.51,4.51,10.32c0.4,0.82,0.95,1.51,1.65,2.09
				c0.7,0.58,1.3,0.9,1.82,0.95c0.51,0.05,0.95,0.13,1.3,0.25c0.35,0.12,0.52,0.37,0.52,0.77c0,0.5-0.45,0.75-1.35,0.75l-4.49-0.3
				l-4.64,0.2c-1.03,0-1.69-0.04-1.97-0.12c-0.28-0.08-0.42-0.26-0.42-0.52c0-0.27,0.13-0.47,0.4-0.62c0.27-0.15,0.55-0.25,0.85-0.3
				c0.3-0.05,0.58-0.2,0.85-0.45c0.27-0.25,0.4-0.67,0.4-1.25c0-0.58-0.42-2-1.25-4.26c-0.83-2.26-1.53-3.92-2.09-4.99
				c-0.3-0.56-0.98-0.85-2.04-0.85l-6.03,0.1h-2.64c-1.5,0-2.44,0.08-2.82,0.25s-0.7,0.52-0.95,1.05c-0.25,0.53-0.61,1.27-1.07,2.22
				c-0.47,0.95-0.78,1.6-0.95,1.97c-0.17,0.37-0.37,0.83-0.6,1.4c-0.43,1-0.65,1.83-0.65,2.49c0,0.67,0.19,1.2,0.57,1.6
				c0.38,0.4,0.81,0.63,1.27,0.7c1.23,0.1,1.85,0.42,1.85,0.95c0,0.23-0.05,0.41-0.15,0.52c-0.1,0.12-0.33,0.17-0.7,0.17
				L362.55,324.09z M371.72,301.17c-1.6,3.67-2.39,5.71-2.39,6.11c0,0.4,0.15,0.65,0.45,0.75c0.3,0.1,1,0.15,2.09,0.15h1.55
				l4.74-0.05c1.3,0,1.95-0.24,1.95-0.72c0-0.48-0.82-2.56-2.44-6.23c-1.63-3.67-2.66-5.51-3.09-5.51
				C374.27,295.66,373.32,297.5,371.72,301.17z"/>
			<path d="M358.28,324.66c-1.22,0-1.84-0.33-1.84-0.97c0-0.62,0.36-1.09,1-1.3c0.96-0.36,1.84-1.21,2.59-2.5
				c0.79-1.36,2.8-5.56,5.99-12.49c3.14-6.81,6.01-13.01,8.55-18.43c0.26-0.57,0.5-0.92,0.74-1.09c0.25-0.18,0.59-0.27,1.02-0.27
				c0.48,0,0.79,0.11,0.97,0.35c0.09,0.12,0.23,0.39,0.6,1.45c0.26,0.76,0.47,1.34,0.62,1.74l0.72,1.95
				c0.33,0.9,0.87,2.26,1.59,4.03c0.75,1.84,2.48,5.92,5.01,11.79c2.6,6.04,4.11,9.5,4.51,10.31c0.37,0.76,0.9,1.43,1.55,1.97
				c0.64,0.53,1.18,0.82,1.62,0.86c0.54,0.05,1,0.14,1.38,0.27c0.5,0.17,0.78,0.57,0.78,1.13c0,0.51-0.3,1.12-1.72,1.12l-4.51-0.3
				l-4.6,0.2c0,0-0.01,0-0.01,0c-1.45,0-1.88-0.08-2.08-0.14c-0.44-0.13-0.69-0.45-0.69-0.88c0-0.28,0.1-0.68,0.59-0.95
				c0.3-0.17,0.63-0.28,0.97-0.34c0.23-0.04,0.44-0.15,0.65-0.35c0.19-0.17,0.28-0.5,0.28-0.97c0-0.37-0.21-1.38-1.22-4.13
				c-0.82-2.23-1.52-3.89-2.07-4.94c-0.23-0.43-0.81-0.65-1.71-0.65l-8.68,0.1c-1.89,0-2.48,0.14-2.67,0.22
				c-0.29,0.13-0.55,0.42-0.76,0.86c-0.25,0.53-0.61,1.28-1.08,2.23c-0.46,0.94-0.78,1.6-0.94,1.96c-0.16,0.36-0.36,0.82-0.59,1.38
				c-0.41,0.95-0.62,1.74-0.62,2.35c0,0.57,0.15,1.01,0.47,1.34c0.33,0.34,0.67,0.53,1.05,0.59c1.43,0.12,2.17,0.56,2.17,1.32
				c0,0.32-0.08,0.58-0.24,0.77c-0.18,0.21-0.49,0.3-0.98,0.3l-4.13-0.05L358.28,324.66C358.28,324.66,358.28,324.66,358.28,324.66z
				 M376.34,288.36c-0.26,0-0.46,0.04-0.58,0.13c-0.06,0.04-0.23,0.21-0.5,0.8c-2.54,5.42-5.42,11.62-8.55,18.42
				c-3.24,7.04-5.22,11.15-6.02,12.55c-0.84,1.45-1.84,2.4-2.98,2.83c-0.45,0.15-0.5,0.38-0.5,0.6c0,0.04,0.19,0.22,1.07,0.22
				l4.29-0.2l4.14,0.05c0.33,0,0.42-0.05,0.42-0.06c0,0,0.05-0.07,0.05-0.27c0-0.28-0.56-0.5-1.5-0.57
				c-0.57-0.08-1.07-0.35-1.51-0.81c-0.45-0.47-0.68-1.09-0.68-1.86c0-0.72,0.22-1.59,0.68-2.64c0.23-0.56,0.43-1.03,0.6-1.4
				c0.17-0.37,0.48-1.03,0.95-1.98c0.46-0.94,0.82-1.68,1.07-2.21c0.29-0.61,0.67-1.03,1.14-1.23c0.28-0.12,0.89-0.28,2.97-0.28
				h2.64l6.03-0.1c1.21,0,2.01,0.35,2.38,1.05c0.57,1.08,1.28,2.77,2.11,5.03c1.14,3.1,1.27,3.99,1.27,4.39
				c0,0.69-0.17,1.2-0.52,1.52c-0.32,0.3-0.67,0.48-1.04,0.54c-0.26,0.04-0.5,0.13-0.73,0.26c-0.18,0.1-0.21,0.2-0.21,0.3
				c0,0.07,0,0.12,0.15,0.16c0.17,0.05,0.63,0.11,1.87,0.11l4.62-0.2l4.53,0.3c0.62,0,0.95-0.13,0.95-0.37
				c0-0.27-0.1-0.36-0.27-0.42c-0.32-0.11-0.73-0.19-1.21-0.23c-0.6-0.06-1.26-0.4-2.02-1.03c-0.74-0.61-1.32-1.36-1.74-2.22
				c-0.4-0.83-1.88-4.21-4.52-10.34c-2.53-5.88-4.26-9.96-5.01-11.8c-0.73-1.78-1.26-3.14-1.6-4.05l-0.72-1.94
				c-0.15-0.4-0.36-0.98-0.63-1.75c-0.35-1-0.47-1.21-0.49-1.24l0,0C376.7,288.41,376.62,288.36,376.34,288.36z M371.87,308.56
				c-1.53,0-1.99-0.1-2.21-0.17c-0.27-0.09-0.71-0.35-0.71-1.1c0-0.33,0.29-1.34,2.43-6.26l0,0c2.49-5.74,2.84-5.74,3.19-5.74
				c0.38,0,0.89,0,3.43,5.73c2.19,4.95,2.48,6.01,2.48,6.39c0,1.1-1.75,1.1-2.32,1.1L371.87,308.56z M372.07,301.32
				c-2.11,4.87-2.36,5.79-2.36,5.96c0,0.33,0.12,0.37,0.19,0.39c0.15,0.05,0.6,0.13,1.97,0.13h1.55l4.73-0.05
				c1.29,0,1.57-0.25,1.57-0.35c0-0.19-0.23-1.17-2.41-6.08c-1.74-3.91-2.45-4.94-2.71-5.21
				C374.35,296.43,373.71,297.55,372.07,301.32L372.07,301.32z"/>
		</g>
	</g>
	<polyline class="st0" points="298.09,6.71 298.09,219.6 107.75,219.6 107.75,6.71 	"/>
	<polyline class="st1" points="313.89,6.71 313.89,235.18 91.95,235.18 91.95,6.71 	"/>
	<line class="st2" x1="179.7" y1="28.83" x2="111.34" y2="253.7"/>
	<path class="st2" d="M134.89,21.88c0,0,149.58-34.74,149.58,19.96s-149.58,58.48-149.58,76.25s89.51,101.05,132.96,84.93"/>
</g>
</svg>
